%YAML 1.1
%TAG !u! tag:unity3d.com,2011:
--- !u!74 &7400000
AnimationClip:
  m_ObjectHideFlags: 0
  m_PrefabParentObject: {fileID: 0}
  m_PrefabInternal: {fileID: 0}
  m_Name: visibility
  serializedVersion: 6
  m_Legacy: 0
  m_Compressed: 0
  m_UseHighQualityCurve: 1
  m_RotationCurves: []
  m_CompressedRotationCurves: []
  m_EulerCurves: []
  m_PositionCurves:
  - curve:
      serializedVersion: 2
      m_Curve:
      - time: 0
        value: {x: -0.06, y: 0.06, z: 0}
        inSlope: {x: -4.0499997, y: 0.74999994, z: 0}
        outSlope: {x: -4.0499997, y: 0.74999994, z: 0}
        tangentMode: 0
      - time: 0.13333334
        value: {x: -0.6, y: 0.16, z: 0}
        inSlope: {x: -2.4299998, y: 1.5300001, z: 0}
        outSlope: {x: -2.4299998, y: 1.5300001, z: 0}
        tangentMode: 0
      - time: 0.46666667
        value: {x: -0.87, y: 0.93, z: 0}
        inSlope: {x: 0.345, y: 1.485, z: 0}
        outSlope: {x: 0.345, y: 1.485, z: 0}
        tangentMode: 0
      - time: 0.8
        value: {x: -0.37, y: 1.15, z: 0}
        inSlope: {x: 1.575, y: -0.39000002, z: 0}
        outSlope: {x: 1.575, y: -0.39000002, z: 0}
        tangentMode: 0
      - time: 1.1333333
        value: {x: 0.18, y: 0.67, z: 0}
        inSlope: {x: 0.6600001, y: -1.4549999, z: 0}
        outSlope: {x: 0.6600001, y: -1.4549999, z: 0}
        tangentMode: 0
      - time: 1.4666667
        value: {x: 0.07, y: 0.18, z: 0}
        inSlope: {x: -0.32999998, y: -1.4699999, z: 0}
        outSlope: {x: -0.32999998, y: -1.4699999, z: 0}
        tangentMode: 0
      m_PreInfinity: 2
      m_PostInfinity: 2
      m_RotationOrder: 4
    path: 
  m_ScaleCurves: []
  m_FloatCurves: []
  m_PPtrCurves: []
  m_SampleRate: 60
  m_WrapMode: 0
  m_Bounds:
    m_Center: {x: 0, y: 0, z: 0}
    m_Extent: {x: 0, y: 0, z: 0}
  m_ClipBindingConstant:
    genericBindings:
    - path: 0
      attribute: 1
      script: {fileID: 0}
      classID: 4
      customType: 0
      isPPtrCurve: 0
    pptrCurveMapping: []
  m_AnimationClipSettings:
    serializedVersion: 2
    m_AdditiveReferencePoseClip: {fileID: 0}
    m_AdditiveReferencePoseTime: 0
    m_StartTime: 0
    m_StopTime: 1.4666667
    m_OrientationOffsetY: 0
    m_Level: 0
    m_CycleOffset: 0
    m_HasAdditiveReferencePose: 0
    m_LoopTime: 1
    m_LoopBlend: 0
    m_LoopBlendOrientation: 0
    m_LoopBlendPositionY: 0
    m_LoopBlendPositionXZ: 0
    m_KeepOriginalOrientation: 0
    m_KeepOriginalPositionY: 1
    m_KeepOriginalPositionXZ: 0
    m_HeightFromFeet: 0
    m_Mirror: 0
  m_EditorCurves:
  - curve:
      serializedVersion: 2
      m_Curve:
      - time: 0
        value: -0.06
        inSlope: -4.0499997
        outSlope: -4.0499997
        tangentMode: 10
      - time: 0.13333334
        value: -0.6
        inSlope: -2.4299998
        outSlope: -2.4299998
        tangentMode: 10
      - time: 0.46666667
        value: -0.87
        inSlope: 0.345
        outSlope: 0.345
        tangentMode: 10
      - time: 0.8
        value: -0.37
        inSlope: 1.575
        outSlope: 1.575
        tangentMode: 10
      - time: 1.1333333
        value: 0.18
        inSlope: 0.6600001
        outSlope: 0.6600001
        tangentMode: 10
      - time: 1.4666667
        value: 0.07
        inSlope: -0.32999998
        outSlope: -0.32999998
        tangentMode: 10
      m_PreInfinity: 2
      m_PostInfinity: 2
      m_RotationOrder: 4
    attribute: m_LocalPosition.x
    path: 
    classID: 4
    script: {fileID: 0}
  - curve:
      serializedVersion: 2
      m_Curve:
      - time: 0
        value: 0.06
        inSlope: 0.74999994
        outSlope: 0.74999994
        tangentMode: 10
      - time: 0.13333334
        value: 0.16
        inSlope: 1.5300001
        outSlope: 1.5300001
        tangentMode: 10
      - time: 0.46666667
        value: 0.93
        inSlope: 1.485
        outSlope: 1.485
        tangentMode: 10
      - time: 0.8
        value: 1.15
        inSlope: -0.39000002
        outSlope: -0.39000002
        tangentMode: 10
      - time: 1.1333333
        value: 0.67
        inSlope: -1.4549999
        outSlope: -1.4549999
        tangentMode: 10
      - time: 1.4666667
        value: 0.18
        inSlope: -1.4699999
        outSlope: -1.4699999
        tangentMode: 10
      m_PreInfinity: 2
      m_PostInfinity: 2
      m_RotationOrder: 4
    attribute: m_LocalPosition.y
    path: 
    classID: 4
    script: {fileID: 0}
  - curve:
      serializedVersion: 2
      m_Curve:
      - time: 0
        value: 0
        inSlope: 0
        outSlope: 0
        tangentMode: 10
      - time: 0.13333334
        value: 0
        inSlope: 0
        outSlope: 0
        tangentMode: 10
      - time: 0.46666667
        value: 0
        inSlope: 0
        outSlope: 0
        tangentMode: 10
      - time: 0.8
        value: 0
        inSlope: 0
        outSlope: 0
        tangentMode: 10
      - time: 1.1333333
        value: 0
        inSlope: 0
        outSlope: 0
        tangentMode: 10
      - time: 1.4666667
        value: 0
        inSlope: 0
        outSlope: 0
        tangentMode: 10
      m_PreInfinity: 2
      m_PostInfinity: 2
      m_RotationOrder: 4
    attribute: m_LocalPosition.z
    path: 
    classID: 4
    script: {fileID: 0}
  m_EulerEditorCurves: []
  m_HasGenericRootTransform: 1
  m_HasMotionFloatCurves: 0
  m_GenerateMotionCurves: 0
  m_Events: []
